EESchema Schematic File Version 4
EELAYER 30 0
EELAYER END
$Descr A4 11693 8268
encoding utf-8
Sheet 1 1
Title "Worx Autopmower Display PCB Replacement"
Date "2022-02-14"
Rev ""
Comp "Copyright (c) 2022 Andreas Messer"
Comment1 ""
Comment2 ""
Comment3 ""
Comment4 ""
$EndDescr
$Comp
L Device:C C1
U 1 1 620AFD16
P 8650 6100
F 0 "C1" V 8398 6100 50  0000 C CNN
F 1 "1µF" V 8489 6100 50  0000 C CNN
F 2 "Capacitors_SMD:C_0603_HandSoldering" H 8688 5950 50  0001 C CNN
F 3 "~" H 8650 6100 50  0001 C CNN
	1    8650 6100
	0    1    1    0   
$EndComp
$Comp
L Device:C C3
U 1 1 620B2BEB
P 9050 6100
F 0 "C3" V 8798 6100 50  0000 C CNN
F 1 "1µF" V 8889 6100 50  0000 C CNN
F 2 "Capacitors_SMD:C_0603_HandSoldering" H 9088 5950 50  0001 C CNN
F 3 "~" H 9050 6100 50  0001 C CNN
	1    9050 6100
	0    1    1    0   
$EndComp
$Comp
L Device:C C2
U 1 1 620B315D
P 8850 3700
F 0 "C2" V 8598 3700 50  0000 C CNN
F 1 "1µF" V 8689 3700 50  0000 C CNN
F 2 "Capacitors_SMD:C_0603_HandSoldering" H 8888 3550 50  0001 C CNN
F 3 "~" H 8850 3700 50  0001 C CNN
	1    8850 3700
	0    1    1    0   
$EndComp
Wire Wire Line
	8700 3700 8650 3700
Wire Wire Line
	8650 3700 8650 3750
Wire Wire Line
	9000 3700 9050 3700
Wire Wire Line
	9050 3700 9050 3750
Wire Wire Line
	8450 6050 8450 6100
Wire Wire Line
	8450 6100 8500 6100
Wire Wire Line
	8800 6100 8850 6100
Wire Wire Line
	8850 6050 8850 6100
Connection ~ 8850 6100
Wire Wire Line
	8850 6100 8900 6100
Wire Wire Line
	9200 6100 9250 6100
Wire Wire Line
	9250 6100 9250 6050
$Comp
L Device:C C4
U 1 1 620B5199
P 9850 4250
F 0 "C4" V 9800 4100 50  0000 C CNN
F 1 "1µF" V 9900 4100 50  0000 C CNN
F 2 "Capacitors_SMD:C_0603_HandSoldering" H 9888 4100 50  0001 C CNN
F 3 "~" H 9850 4250 50  0001 C CNN
	1    9850 4250
	0    1    1    0   
$EndComp
Wire Wire Line
	9650 4250 9700 4250
Wire Wire Line
	9650 4450 9700 4450
Wire Wire Line
	9650 4650 9700 4650
Wire Wire Line
	9650 4850 9700 4850
Wire Wire Line
	9650 5050 9700 5050
Wire Wire Line
	9650 5250 9700 5250
Wire Wire Line
	10000 4250 10050 4250
Wire Wire Line
	10050 4250 10050 4450
Wire Wire Line
	10050 5450 9650 5450
Wire Wire Line
	10000 5250 10050 5250
Connection ~ 10050 5250
Wire Wire Line
	10050 5250 10050 5450
Wire Wire Line
	10000 5050 10050 5050
Connection ~ 10050 5050
Wire Wire Line
	10050 5050 10050 5250
Wire Wire Line
	10000 4850 10050 4850
Connection ~ 10050 4850
Wire Wire Line
	10050 4850 10050 5050
Wire Wire Line
	10000 4650 10050 4650
Connection ~ 10050 4650
Wire Wire Line
	10050 4650 10050 4850
Wire Wire Line
	10000 4450 10050 4450
Connection ~ 10050 4450
Wire Wire Line
	10050 4450 10050 4650
$Comp
L Device:C C5
U 1 1 620B8DBE
P 9850 4450
F 0 "C5" V 9800 4300 50  0000 C CNN
F 1 "1µF" V 9900 4300 50  0000 C CNN
F 2 "Capacitors_SMD:C_0603_HandSoldering" H 9888 4300 50  0001 C CNN
F 3 "~" H 9850 4450 50  0001 C CNN
	1    9850 4450
	0    1    1    0   
$EndComp
$Comp
L Device:C C6
U 1 1 620B9067
P 9850 4650
F 0 "C6" V 9800 4500 50  0000 C CNN
F 1 "1µF" V 9900 4500 50  0000 C CNN
F 2 "Capacitors_SMD:C_0603_HandSoldering" H 9888 4500 50  0001 C CNN
F 3 "~" H 9850 4650 50  0001 C CNN
	1    9850 4650
	0    1    1    0   
$EndComp
$Comp
L Device:C C7
U 1 1 620B934D
P 9850 4850
F 0 "C7" V 9800 4700 50  0000 C CNN
F 1 "1µF" V 9900 4700 50  0000 C CNN
F 2 "Capacitors_SMD:C_0603_HandSoldering" H 9888 4700 50  0001 C CNN
F 3 "~" H 9850 4850 50  0001 C CNN
	1    9850 4850
	0    1    1    0   
$EndComp
$Comp
L Device:C C8
U 1 1 620B95AB
P 9850 5050
F 0 "C8" V 9800 4900 50  0000 C CNN
F 1 "1µF" V 9900 4900 50  0000 C CNN
F 2 "Capacitors_SMD:C_0603_HandSoldering" H 9888 4900 50  0001 C CNN
F 3 "~" H 9850 5050 50  0001 C CNN
	1    9850 5050
	0    1    1    0   
$EndComp
$Comp
L Device:C C9
U 1 1 620B987F
P 9850 5250
F 0 "C9" V 9800 5100 50  0000 C CNN
F 1 "1µF" V 9900 5100 50  0000 C CNN
F 2 "Capacitors_SMD:C_0603_HandSoldering" H 9888 5100 50  0001 C CNN
F 3 "~" H 9850 5250 50  0001 C CNN
	1    9850 5250
	0    1    1    0   
$EndComp
$Comp
L power:GND #PWR06
U 1 1 620B9E66
P 10050 5500
F 0 "#PWR06" H 10050 5250 50  0001 C CNN
F 1 "GND" H 10055 5327 50  0000 C CNN
F 2 "" H 10050 5500 50  0001 C CNN
F 3 "" H 10050 5500 50  0001 C CNN
	1    10050 5500
	1    0    0    -1  
$EndComp
Wire Wire Line
	10050 5450 10050 5500
Connection ~ 10050 5450
$Comp
L Device:C C10
U 1 1 620BA8F0
P 10200 4250
F 0 "C10" H 10100 4150 50  0000 C CNN
F 1 "1µF" H 10100 4350 50  0000 C CNN
F 2 "Capacitors_SMD:C_0603_HandSoldering" H 10238 4100 50  0001 C CNN
F 3 "~" H 10200 4250 50  0001 C CNN
	1    10200 4250
	-1   0    0    1   
$EndComp
Wire Wire Line
	9650 4050 10200 4050
Wire Wire Line
	10200 4050 10200 4100
$Comp
L power:GND #PWR08
U 1 1 620BBD6F
P 10200 4450
F 0 "#PWR08" H 10200 4200 50  0001 C CNN
F 1 "GND" H 10205 4277 50  0000 C CNN
F 2 "" H 10200 4450 50  0001 C CNN
F 3 "" H 10200 4450 50  0001 C CNN
	1    10200 4450
	1    0    0    -1  
$EndComp
Wire Wire Line
	10200 4400 10200 4450
Wire Wire Line
	8050 4350 8000 4350
Wire Wire Line
	8000 4350 8000 4450
Wire Wire Line
	8000 5050 8050 5050
Wire Wire Line
	8050 4950 8000 4950
Connection ~ 8000 4950
Wire Wire Line
	8000 4950 8000 5050
Wire Wire Line
	8050 4850 8000 4850
Connection ~ 8000 4850
Wire Wire Line
	8000 4850 8000 4950
Wire Wire Line
	8050 4750 8000 4750
Connection ~ 8000 4750
Wire Wire Line
	8000 4750 8000 4850
Wire Wire Line
	8050 4650 8000 4650
Connection ~ 8000 4650
Wire Wire Line
	8000 4650 8000 4750
Wire Wire Line
	8050 4550 8000 4550
Connection ~ 8000 4550
Wire Wire Line
	8000 4550 8000 4650
Wire Wire Line
	8050 4450 8000 4450
Connection ~ 8000 4450
Wire Wire Line
	8000 4450 8000 4550
Wire Wire Line
	10200 3750 10200 4050
Connection ~ 10200 4050
$Comp
L power:+3.3V #PWR07
U 1 1 620C6343
P 10200 3750
F 0 "#PWR07" H 10200 3600 50  0001 C CNN
F 1 "+3.3V" H 10200 3900 50  0000 C CNN
F 2 "" H 10200 3750 50  0001 C CNN
F 3 "" H 10200 3750 50  0001 C CNN
	1    10200 3750
	1    0    0    -1  
$EndComp
$Comp
L power:+3.3V #PWR04
U 1 1 620C8AED
P 8000 3750
F 0 "#PWR04" H 8000 3600 50  0001 C CNN
F 1 "+3.3V" H 8000 3900 50  0000 C CNN
F 2 "" H 8000 3750 50  0001 C CNN
F 3 "" H 8000 3750 50  0001 C CNN
	1    8000 3750
	1    0    0    -1  
$EndComp
$Comp
L power:+3.3V #PWR01
U 1 1 620CDCD1
P 7300 3750
F 0 "#PWR01" H 7300 3600 50  0001 C CNN
F 1 "+3.3V" H 7300 3900 50  0000 C CNN
F 2 "" H 7300 3750 50  0001 C CNN
F 3 "" H 7300 3750 50  0001 C CNN
	1    7300 3750
	1    0    0    -1  
$EndComp
Wire Wire Line
	7300 4550 7250 4550
$Comp
L power:GND #PWR02
U 1 1 620DDCA4
P 7300 4700
F 0 "#PWR02" H 7300 4450 50  0001 C CNN
F 1 "GND" H 7305 4527 50  0001 C CNN
F 2 "" H 7300 4700 50  0001 C CNN
F 3 "" H 7300 4700 50  0001 C CNN
	1    7300 4700
	1    0    0    -1  
$EndComp
Wire Wire Line
	7250 4650 7300 4650
Wire Wire Line
	7300 4650 7300 4700
Wire Wire Line
	7300 3750 7300 4550
Wire Wire Line
	7250 4050 8050 4050
Wire Wire Line
	8050 4150 7250 4150
Wire Wire Line
	8050 4250 7250 4250
Wire Wire Line
	8050 5150 7900 5150
Wire Wire Line
	7900 5150 7900 4350
Wire Wire Line
	7900 4350 7250 4350
Wire Wire Line
	7250 4450 7850 4450
Wire Wire Line
	7850 4450 7850 5250
Wire Wire Line
	7850 5250 8050 5250
$Comp
L Connector_Generic:Conn_01x08 J1
U 1 1 620EEEA7
P 7050 4350
F 0 "J1" H 6968 3725 50  0000 C CNN
F 1 "Display" H 6968 3816 50  0000 C CNN
F 2 "Connectors_Molex:Molex_KK-6410-08_08x2.54mm_Straight" H 7050 4350 50  0001 C CNN
F 3 "~" H 7050 4350 50  0001 C CNN
	1    7050 4350
	-1   0    0    1   
$EndComp
Wire Wire Line
	8000 3750 8000 4350
Connection ~ 8000 4350
$Comp
L power:GND #PWR05
U 1 1 6210AEDE
P 8000 5500
F 0 "#PWR05" H 8000 5250 50  0001 C CNN
F 1 "GND" H 8005 5327 50  0001 C CNN
F 2 "" H 8000 5500 50  0001 C CNN
F 3 "" H 8000 5500 50  0001 C CNN
	1    8000 5500
	1    0    0    -1  
$EndComp
Wire Wire Line
	8050 5450 8000 5450
Wire Wire Line
	8000 5450 8000 5500
Wire Wire Line
	8000 5050 8000 5350
Wire Wire Line
	8000 5350 8050 5350
Connection ~ 8000 5050
Text Label 7400 4450 0    50   ~ 0
SDA
Text Label 7400 4350 0    50   ~ 0
SCLK
Text Label 7400 4250 0    50   ~ 0
A0
Text Label 7400 4150 0    50   ~ 0
RSTB
Text Label 7400 4050 0    50   ~ 0
CSB
Wire Wire Line
	7250 3950 7650 3950
Text Label 7400 3950 0    50   ~ 0
K
Wire Wire Line
	7650 5750 8050 5750
Wire Wire Line
	7650 3950 7650 5750
$Comp
L Device:R R1
U 1 1 6212281A
P 7750 5450
F 0 "R1" H 7680 5404 50  0000 R CNN
F 1 "10R" H 7680 5495 50  0000 R CNN
F 2 "Resistors_SMD:R_0805_HandSoldering" V 7680 5450 50  0001 C CNN
F 3 "~" H 7750 5450 50  0001 C CNN
	1    7750 5450
	-1   0    0    1   
$EndComp
$Comp
L power:+3.3V #PWR03
U 1 1 62122C05
P 7750 5250
F 0 "#PWR03" H 7750 5100 50  0001 C CNN
F 1 "+3.3V" V 7765 5378 50  0000 L CNN
F 2 "" H 7750 5250 50  0001 C CNN
F 3 "" H 7750 5250 50  0001 C CNN
	1    7750 5250
	1    0    0    -1  
$EndComp
Wire Wire Line
	7350 5250 7250 5250
Wire Wire Line
	7250 5350 7350 5350
Wire Wire Line
	7350 5450 7250 5450
Wire Wire Line
	7250 5550 7350 5550
Wire Wire Line
	7350 5650 7250 5650
Wire Wire Line
	7350 5750 7250 5750
Wire Wire Line
	7250 5850 7350 5850
Wire Wire Line
	7250 5950 7350 5950
Wire Wire Line
	7750 5650 7750 5600
Wire Wire Line
	7750 5650 8050 5650
Wire Wire Line
	7750 5250 7750 5300
Wire Notes Line
	6950 4900 7600 4900
Wire Notes Line
	7600 4900 7600 6250
Wire Notes Line
	7600 6250 6950 6250
Wire Notes Line
	6950 6250 6950 4900
$Comp
L Connector:Conn_01x10_Male J3
U 1 1 62182644
P 7550 5550
F 0 "J3" H 7800 5000 50  0000 R CNN
F 1 "Keypad" H 7800 4900 50  0000 R CNN
F 2 "Pin_Headers:Pin_Header_Angled_2x05_Pitch2.54mm" H 7550 5550 50  0001 C CNN
F 3 "~" H 7550 5550 50  0001 C CNN
	1    7550 5550
	-1   0    0    -1  
$EndComp
$Comp
L Connector_Generic:Conn_01x10 J2
U 1 1 6218B1CA
P 7050 5550
F 0 "J2" H 6950 6150 50  0000 C CNN
F 1 "Keyboard" H 6950 6050 50  0000 C CNN
F 2 "Connectors_Molex:Molex_KK-6410-10_10x2.54mm_Straight" H 7050 5550 50  0001 C CNN
F 3 "~" H 7050 5550 50  0001 C CNN
	1    7050 5550
	-1   0    0    -1  
$EndComp
Wire Wire Line
	7250 5150 7350 5150
Wire Wire Line
	7250 6050 7350 6050
$Comp
L ProjectSymbols:Displaytech_64128K U1
U 1 1 620AF40A
P 8850 4850
F 0 "U1" H 8300 5800 50  0000 C CNN
F 1 "Displaytech_64128K" H 8850 4850 50  0000 C CNN
F 2 "ProjectFootprints:Displaytech_64128K" H 8900 4950 50  0001 C CNN
F 3 "" H 8900 4950 50  0001 C CNN
	1    8850 4850
	1    0    0    -1  
$EndComp
$EndSCHEMATC
