(module Unkown_Tact_5x5x1.6mm (layer F.Cu) (tedit 61B4DED3)
  (attr smd)
  (fp_text reference REF** (at 0 -3.5) (layer F.SilkS)
    (effects (font (size 1 1) (thickness 0.15)))
  )
  (fp_text value Unkown_Tact_5x5x1.6mm (at 0 3.6) (layer F.Fab)
    (effects (font (size 1 1) (thickness 0.15)))
  )
  (fp_line (start -2.5 -2.5) (end 2.5 -2.5) (layer F.Fab) (width 0.1))
  (fp_line (start 2.5 -2.5) (end 2.5 2.5) (layer F.Fab) (width 0.1))
  (fp_line (start 2.5 2.5) (end -2.5 2.5) (layer F.Fab) (width 0.1))
  (fp_line (start -2.5 2.5) (end -2.5 -2.5) (layer F.Fab) (width 0.1))
  (fp_circle (center 0 0) (end 1 0) (layer F.Fab) (width 0.12))
  (fp_text user %R (at 0 0) (layer F.Fab)
    (effects (font (size 1 1) (thickness 0.15)))
  )
  (fp_line (start -3 -2.8) (end 3 -2.8) (layer F.SilkS) (width 0.12))
  (fp_line (start -3 2.8) (end 3 2.8) (layer F.SilkS) (width 0.12))
  (fp_line (start -3 -1) (end -3 1) (layer F.SilkS) (width 0.12))
  (fp_line (start 3 -1) (end 3 1) (layer F.SilkS) (width 0.12))
  (fp_line (start -3.75 -2.75) (end 3.75 -2.75) (layer F.CrtYd) (width 0.12))
  (fp_line (start 3.75 -2.75) (end 3.75 2.75) (layer F.CrtYd) (width 0.12))
  (fp_line (start 3.75 2.75) (end -3.75 2.75) (layer F.CrtYd) (width 0.12))
  (fp_line (start -3.75 2.75) (end -3.75 -2.75) (layer F.CrtYd) (width 0.12))
  (pad 1 smd rect (at -3 -1.8) (size 1 1) (layers F.Cu F.Paste F.Mask))
  (pad 2 smd rect (at 3 -1.8) (size 1 1) (layers F.Cu F.Paste F.Mask))
  (pad 3 smd rect (at -3 1.8) (size 1 1) (layers F.Cu F.Paste F.Mask))
  (pad 4 smd rect (at 3 1.8) (size 1 1) (layers F.Cu F.Paste F.Mask))
)
